define bhole as
face: f1,f2,f3,f4,f5,f6,f7
edge: e1,e2,e3,e4,e5,e6,e7,e8,e9,e10,e11,e12
satisfying
bounds(e1,f7)
bounds(e1,f1)
bounds(e2,f7)
bounds(e2,f2)
bounds(e3,f1)
bounds(e3,f2)
bounds(e4,f2)
bounds(e4,f1)
bounds(e5,f1)
bounds(e5,f3)
bounds(e6,f3)
bounds(e6,f2)
bounds(e7,f3)
bounds(e7,f4)
bounds(e8,f3)
bounds(e8,f5)
bounds(e9,f4)
bounds(e9,f5)
bounds(e10,f5)
bounds(e10,f4)
bounds(e11,f4)
bounds(e11,f6)
bounds(e12,f6)
bounds(e12,f5)
dihedral(e1,2)
dihedral(e2,2)
dihedral(e3,3)
dihedral(e4,3)
dihedral(e5,1)
dihedral(e6,1)
dihedral(e7,2)
dihedral(e8,2)
dihedral(e9,3)
dihedral(e10,3)
dihedral(e11,1)
dihedral(e12,1)
end
