define buttress as
face: f1,f2,f3,f4,f5
edge: e1,e2,e3,e4,e5,e6,e7,e8
satisfying
bounds(e1,f1)
bounds(e1,f4)
bounds(e2,f1)
bounds(e2,f3)
bounds(e3,f1)
bounds(e3,f5)
bounds(e4,f1)
bounds(e4,f2)
bounds(e5,f2)
bounds(e5,f4)
bounds(e6,f2)
bounds(e6,f5)
bounds(e7,f3)
bounds(e7,f4)
bounds(e8,f3)
bounds(e8,f5)
dihedral(e2,2)
dihedral(e4,2)
dihedral(e1,1)
dihedral(e3,1)
dihedral(e5,1)
dihedral(e6,1)
dihedral(e7,1)
dihedral(e8,1)
end
