define hole as
face: f1,f2,f3,f4
edge: e1,e2,e3,e4,e5,e6
satisfying
bounds(e1,f1)
bounds(e1,f3)
bounds(e2,f1)
bounds(e2,f4)
bounds(e3,f2)
bounds(e3,f3)
bounds(e4,f2)
bounds(e4,f4)
bounds(e5,f3)
bounds(e5,f4)
bounds(e6,f4)
bounds(e6,f3)
dihedral(e1,2)
dihedral(e2,2)
dihedral(e3,2)
dihedral(e4,2)
dihedral(e5,3)
dihedral(e6,3)
shape_face(f3,cylinder)
shape_face(f4,cylinder)
end
