define notch as
face: f1,f2,f3,f4
edge: e1,e2,e3,e4,e5
satisfying
bounds(e1,f1)
bounds(e1,f2)
bounds(e2,f2)
bounds(e2,f3)
bounds(e3,f1)
bounds(e3,f4)
bounds(e4,f1)
bounds(e4,f3)
bounds(e5,f2)
bounds(e5,f4)
dihedral(e1,1)
dihedral(e2,2)
dihedral(e3,2)
dihedral(e4,2)
end
