define roundslot as
edge: e1,e2,e3,e4,e5,e6,e7,e8,e9,e10,e11,e12,e13,e14,e15,e16,e17
face:f1,f2,f3,f4,f5,f6,f7,f8,f9,f10
satisfying,
bounds(e1,f1)
bounds(e1,f7)
bounds(e2,f2)
bounds(e2,f7)
bounds(e3,f3)
bounds(e3,f7)
bounds(e4,f4)
bounds(e4,f7)
bounds(e5,f5)
bounds(e5,f7)
bounds(e6,f5)
bounds(e6,f8)
bounds(e7,f6)
bounds(e7,f9)
bounds(e8,f1)
bounds(e8,f10)
bounds(e9,f1)
bounds(e9,f2)
bounds(e10,f2)
bounds(e10,f3)
bounds(e11,f3)
bounds(e11,f4)
bounds(e12,f4)
bounds(e12,f5)
bounds(e13,f5)
bounds(e13,f6)
bounds(e14,f6)
bounds(e14,f1)
bounds(e15,f6)
bounds(e15,f2)
bounds(e16,f3)
bounds(e16,f6)
bounds(e17,f6)
bounds(e17,f4)
dihedral(e1,2)
dihedral(e2,2)
dihedral(e3,2)
dihedral(e4,2)
dihedral(e5,2)
dihedral(e6,3)
dihedral(e7,2)
dihedral(e8,3)
dihedral(e9,3)
dihedral(e10,1)
dihedral(e11,1)
dihedral(e12,3)
dihedral(e13,1)
dihedral(e14,1)
dihedral(e15,1)
dihedral(e16,1)
dihedral(e17,1)
end
